{
  "extends": "tslint:recommended",
  "rules": {
    "arrow-return-shorthand": true,
    "ban-comma-operator": true,
    "curly": [true, "as-needed"],
    "object-literal-key-quotes": [true, "as-needed"],
    "eofline": true,
    "indent": [true, "spaces", 2],
    "linebreak-style": [true, "LF"],
    "max-classes-per-file": [true, 1],
    "no-invalid-template-strings": true,
    "no-trailing-whitespace": true,
    "no-unsafe-any": true,
    "no-var-keyword": true,
    "one-line": [true, "check-catch", "check-finally", "check-else"],
    "ordered-imports": false,
    "prefer-const": true,
    "prefer-object-spread": true,
    "prefer-template": true,
    "quotemark": [true, "single"],
    "restrict-plus-operands": true,
    "semicolon": [true, "never"],
    "triple-equals": true,
    "use-isnan": true,
    "max-line-length": {
      "options": [120]
    },
    "new-parens": true,
    "no-arg": true,
    "no-bitwise": true,
    "no-conditional-assignment": true,
    "no-consecutive-blank-lines": false,
    "no-console": {
      "severity": "warning"
    }
  }
}